{
    "data": [
        [
            {
                "altang": 0,
                "aziang": 0,
                "force": 0,
                "time": 0,
                "x": 53.566533571291124,
                "y": 368.8733279230173
            },
            {
                "altang": 0,
                "aziang": 0,
                "force": 0,
                "time": 0,
                "x": 53.566533571291124,
                "y": 435.1266720769827
            },
            {
                "altang": 0,
                "aziang": 0,
                "force": 0,
                "time": 0,
                "x": 112.57341820841651,
                "y": 435.1266720769827
            },
            {
                "altang": 0,
                "aziang": 0,
                "force": 0,
                "time": 0,
                "x": 112.57341820841651,
                "y": 368.8733279230173
            },
            {
                "altang": 0,
                "aziang": 0,
                "force": 0,
                "time": 0,
                "x": 171.58030284554187,
                "y": 435.1266720769827
            },
            {
                "altang": 0,
                "aziang": 0,
                "force": 0,
                "time": 0,
                "x": 230.58718748266725,
                "y": 368.8733279230173
            },
            {
                "altang": 0,
                "aziang": 0,
                "force": 0,
                "time": 0,
                "x": 230.58718748266725,
                "y": 435.1266720769827
            },
            {
                "altang": 0,
                "aziang": 0,
                "force": 0,
                "time": 0,
                "x": 289.59407211979266,
                "y": 435.1266720769827
            },
            {
                "altang": 0,
                "aziang": 0,
                "force": 0,
                "time": 0,
                "x": 289.59407211979266,
                "y": 368.8733279230173
            },
            {
                "altang": 0,
                "aziang": 0,
                "force": 0,
                "time": 0,
                "x": 348.600956756918,
                "y": 435.1266720769827
            }
        ]
    ],
    "id": "pl_continue",
    "patientId": "pl_continue",
    "time": "2016-10-10 10:10:10 +0000",
    "type": "pl_continue"
}